{
    "menus": [{
            "title": "Users",
            "url": "",
            "permission": "access.users",
            "icon": "fa fa-user",
            "allow_site": "all",
            "items": [{
                    "title": "Users",
                    "url": "\/admin\/users",
                    "permission": "access.users",
                    "icon": "fa fa-users",
                    "allow_site": "all"
                }

            ]
        },



        {
            "title": "Blog",
            "url": "",
            "permission": "access.blogs",
            "icon": "fa fa-users",
            "allow_site": "all",
            "items": [{
                    "title": "Add Blog",
                    "url": "\/admin\/blogs\/create",
                    "permission": "",
                    "icon": "fa fa-plus",
                    "allow_site": "all"
                },
                {
                    "title": "List Blog",
                    "url": "\/admin\/blogs",
                    "permission": "",
                    "icon": "fa fa-list",
                    "allow_site": "all"
                }
            ]
        }



    ]
}